Basic Usage • fiphde
…
Data retrieval

Prior to fitting any forecasts we need to first retrieve data from
the HealthData.gov
COVID-19 Reported Patient Impact and Hospital Capacity by State
Timeseries API. Running get_hdgov_hosp(limitcols=TRUE)
will initiate an API call with an argument to return only a selection of
fields relevant to flu hospitalization reporting.

hosp <- get_hdgov_hosp(limitcols = TRUE)

hosp
#> # A tibble: 43,967 × 14
#>    state date       flu.admits flu.admits.cov flu.deaths flu.deaths.cov flu.icu
#>    <chr> <date>          <dbl>          <dbl>      <dbl>          <dbl>   <dbl>
#>  1 AL    2019-12-31         NA              0         NA              0      NA
#>  2 HI    2019-12-31         NA              0         NA              0      NA
#>  3 IN    2019-12-31         NA              0         NA              0      NA
#>  4 LA    2019-12-31         NA              0         NA              0      NA
#>  5 MN    2019-12-31         NA              0         NA              0      NA
#>  6 MT    2019-12-31         NA              0         NA              0      NA
#>  7 NC    2019-12-31         NA              0         NA              0      NA
#>  8 PR    2019-12-31         NA              0         NA              0      NA
#>  9 TX    2019-12-31         NA              0         NA              0      NA
#> 10 AL    2020-01-01         NA              0         NA              0      NA
#> # ℹ 43,957 more rows
#> # ℹ 7 more variables: flu.icu.cov <dbl>, flu.tot <dbl>, flu.tot.cov <dbl>,
#> #   cov.admits <dbl>, cov.admits.cov <dbl>, cov.deaths <dbl>,
#> #   cov.deaths.cov <dbl>
…
# Prep data
prepped_hosp <-
  hosp %>%
  prep_hdgov_hosp(statesonly=TRUE, min_per_week = 0, remove_incomplete = TRUE) %>%
  dplyr::filter(abbreviation != "DC")

prepped_hosp
#> # A tibble: 4,284 × 13
#>    abbreviation location week_start monday     week_end   epiyear epiweek
#>    <chr>        <chr>    <date>     <date>     <date>       <dbl>   <dbl>
#>  1 US           US       2020-10-18 2020-10-19 2020-10-24    2020      43
#>  2 US           US       2020-10-25 2020-10-26 2020-10-31    2020      44
#>  3 US           US       2020-11-01 2020-11-02 2020-11-07    2020      45
#>  4 US           US       2020-11-08 2020-11-09 2020-11-14    2020      46
#>  5 US           US       2020-11-15 2020-11-16 2020-11-21    2020      47
#>  6 US           US       2020-11-22 2020-11-23 2020-11-28    2020      48
#>  7 US           US       2020-11-29 2020-11-30 2020-12-05    2020      49
#>  8 US           US       2020-12-06 2020-12-07 2020-12-12    2020      50
#>  9 US           US       2020-12-13 2020-12-14 2020-12-19    2020      51
#> 10 US           US       2020-12-20 2020-12-21 2020-12-26    2020      52
#> # ℹ 4,274 more rows
#> # ℹ 6 more variables: flu.admits <dbl>, flu.admits.cov <dbl>, ili_mean <dbl>,
#> #   ili_rank <int>, hosp_mean <dbl>, hosp_rank <int>
…
prepped_hosp_tsibble <- make_tsibble(prepped_hosp,
                                     epiyear=epiyear,
                                     epiweek=epiweek,
                                     key=location)

prepped_hosp_tsibble
#> # A tsibble: 4,284 x 14 [1W]
#> # Key:       location [51]
#>    abbreviation location week_start monday        yweek week_end   epiyear
#>    <chr>        <chr>    <date>     <date>       <week> <date>       <dbl>
#>  1 AL           01       2020-10-18 2020-10-19 2020 W43 2020-10-24    2020
#>  2 AL           01       2020-10-25 2020-10-26 2020 W44 2020-10-31    2020
#>  3 AL           01       2020-11-01 2020-11-02 2020 W45 2020-11-07    2020
#>  4 AL           01       2020-11-08 2020-11-09 2020 W46 2020-11-14    2020
#>  5 AL           01       2020-11-15 2020-11-16 2020 W47 2020-11-21    2020
#>  6 AL           01       2020-11-22 2020-11-23 2020 W48 2020-11-28    2020
#>  7 AL           01       2020-11-29 2020-11-30 2020 W49 2020-12-05    2020
#>  8 AL           01       2020-12-06 2020-12-07 2020 W50 2020-12-12    2020
#>  9 AL           01       2020-12-13 2020-12-14 2020 W51 2020-12-19    2020
#> 10 AL           01       2020-12-20 2020-12-21 2020 W52 2020-12-26    2020
#> # ℹ 4,274 more rows
#> # ℹ 7 more variables: epiweek <dbl>, flu.admits <dbl>, flu.admits.cov <dbl>,
#> #   ili_mean <dbl>, ili_rank <int>, hosp_mean <dbl>, hosp_rank <int>
…
After fitting the models, the function then forecasts the outcome to
the specified number of weeks. Let’s take a look at the object returned
from this model fit + forecast. We see $tsfit, which gives
us the ARIMA, ETS, and ensemble model fits as list columns, one row per
location; $tsfor gives us the forecast for the next four
weeks, one row per model per location (key in the tsibble);
$formulas gives us the model formulas passed to fable
modeling functions; and if any models failed to converge we would see
those locations in $nullmodels.

hosp_fitfor
#> $tsfit
#> # A mable: 51 x 4
#> # Key:     location [51]
#>    location                       arima          ets      ensemble
#>    <chr>                        <model>      <model>       <model>
#>  1 01       <LM w/ ARIMA(2,0,0) errors> <ETS(A,N,N)> <COMBINATION>
#>  2 02       <LM w/ ARIMA(1,0,0) errors> <ETS(A,N,N)> <COMBINATION>
#>  3 04       <LM w/ ARIMA(2,1,0) errors> <ETS(M,N,N)> <COMBINATION>
#>  4 05       <LM w/ ARIMA(2,1,0) errors> <ETS(A,N,N)> <COMBINATION>
#>  5 06       <LM w/ ARIMA(2,2,0) errors> <ETS(M,A,N)> <COMBINATION>
#>  6 08       <LM w/ ARIMA(1,1,0) errors> <ETS(A,N,N)> <COMBINATION>
#>  7 09       <LM w/ ARIMA(1,1,0) errors> <ETS(A,N,N)> <COMBINATION>
#>  8 10       <LM w/ ARIMA(2,1,0) errors> <ETS(A,N,N)> <COMBINATION>
#>  9 12       <LM w/ ARIMA(2,2,0) errors> <ETS(M,N,N)> <COMBINATION>
#> 10 13       <LM w/ ARIMA(2,1,0) errors> <ETS(A,N,N)> <COMBINATION>
#> # ℹ 41 more rows
#> 
#> $tsfor
#> # A fable: 612 x 10 [1W]
#> # Key:     location, .model [153]
#>    location .model      yweek
#>    <chr>    <chr>      <week>
#>  1 01       arima    2022 W22
#>  2 01       arima    2022 W23
#>  3 01       arima    2022 W24
#>  4 01       arima    2022 W25
#>  5 01       ets      2022 W22
#>  6 01       ets      2022 W23
#>  7 01       ets      2022 W24
#>  8 01       ets      2022 W25
#>  9 01       ensemble 2022 W22
#> 10 01       ensemble 2022 W23
#> # ℹ 602 more rows
#> # ℹ 7 more variables: flu.admits <dist>, .mean <dbl>, epiweek <dbl>,
#> #   ili_mean <dbl>, ili_rank <int>, hosp_mean <dbl>, hosp_rank <int>
…
Next, we can format the forecasts for submission
to FluSight using the format_for_submission
function.

formatted_list <- format_for_submission(hosp_fitfor$tsfor, method = "ts", format = "legacy")

The list contains separate submission-ready tibbles, one element for
each type of model fitted.

formatted_list
#> $arima
#> # A tibble: 4,896 × 7
#>    forecast_date target            target_end_date location type  quantile value
#>    <date>        <chr>             <date>          <chr>    <chr> <chr>    <chr>
#>  1 2024-12-10    1 wk ahead inc f… 2022-06-04      01       point NA       17   
#>  2 2024-12-10    2 wk ahead inc f… 2022-06-11      01       point NA       21   
#>  3 2024-12-10    3 wk ahead inc f… 2022-06-18      01       point NA       20   
#>  4 2024-12-10    4 wk ahead inc f… 2022-06-25      01       point NA       22   
#>  5 2024-12-10    1 wk ahead inc f… 2022-06-04      01       quan… 0.010    0    
#>  6 2024-12-10    2 wk ahead inc f… 2022-06-11      01       quan… 0.010    4    
#>  7 2024-12-10    3 wk ahead inc f… 2022-06-18      01       quan… 0.010    1    
#>  8 2024-12-10    4 wk ahead inc f… 2022-06-25      01       quan… 0.010    3    
#>  9 2024-12-10    1 wk ahead inc f… 2022-06-04      01       quan… 0.025    2    
#> 10 2024-12-10    2 wk ahead inc f… 2022-06-11      01       quan… 0.025    6    
#> # ℹ 4,886 more rows
#> 
#> $ensemble
#> # A tibble: 4,896 × 7
#>    forecast_date target            target_end_date location type  quantile value
#>    <date>        <chr>             <date>          <chr>    <chr> <chr>    <chr>
#>  1 2024-12-10    1 wk ahead inc f… 2022-06-04      01       point NA       18   
#>  2 2024-12-10    2 wk ahead inc f… 2022-06-11      01       point NA       20   
#>  3 2024-12-10    3 wk ahead inc f… 2022-06-18      01       point NA       19   
#>  4 2024-12-10    4 wk ahead inc f… 2022-06-25      01       point NA       20   
#>  5 2024-12-10    1 wk ahead inc f… 2022-06-04      01       quan… 0.010    0    
#>  6 2024-12-10    2 wk ahead inc f… 2022-06-11      01       quan… 0.010    1    
#>  7 2024-12-10    3 wk ahead inc f… 2022-06-18      01       quan… 0.010    0    
#>  8 2024-12-10    4 wk ahead inc f… 2022-06-25      01       quan… 0.010    0    
#>  9 2024-12-10    1 wk ahead inc f… 2022-06-04      01       quan… 0.025    3    
#> 10 2024-12-10    2 wk ahead inc f… 2022-06-11      01       quan… 0.025    4    
#> # ℹ 4,886 more rows
#> 
#> $ets
#> # A tibble: 4,896 × 7
#>    forecast_date target            target_end_date location type  quantile value
#>    <date>        <chr>             <date>          <chr>    <chr> <chr>    <chr>
#>  1 2024-12-10    1 wk ahead inc f… 2022-06-04      01       point NA       19   
#>  2 2024-12-10    2 wk ahead inc f… 2022-06-11      01       point NA       19   
#>  3 2024-12-10    3 wk ahead inc f… 2022-06-18      01       point NA       19   
#>  4 2024-12-10    4 wk ahead inc f… 2022-06-25      01       point NA       19   
#>  5 2024-12-10    1 wk ahead inc f… 2022-06-04      01       quan… 0.010    0    
#>  6 2024-12-10    2 wk ahead inc f… 2022-06-11      01       quan… 0.010    0    
#>  7 2024-12-10    3 wk ahead inc f… 2022-06-18      01       quan… 0.010    0    
#>  8 2024-12-10    4 wk ahead inc f… 2022-06-25      01       quan… 0.010    0    
#>  9 2024-12-10    1 wk ahead inc f… 2022-06-04      01       quan… 0.025    2    
#> 10 2024-12-10    2 wk ahead inc f… 2022-06-11      01       quan… 0.025    1    
#> # ℹ 4,886 more rows
…
Finally, we create our modeling dataset by combining the flu
admission data prepared above with the forecasted ILI data in future
weeks together with the historical severity data by epidemiological
week.

dat_hi <-
  prepped_hosp %>%
  filter(abbreviation=="HI") %>%
  dplyr::mutate(date = MMWRweek::MMWRweek2Date(epiyear, epiweek)) %>%
  left_join(ilifor$ilidat, by = c("epiyear", "location", "epiweek")) %>%
  mutate(ili = log(ili))
dat_hi
#> # A tibble: 84 × 15
#>    abbreviation location week_start monday     week_end   epiyear epiweek
#>    <chr>        <chr>    <date>     <date>     <date>       <dbl>   <dbl>
#>  1 HI           15       2020-10-18 2020-10-19 2020-10-24    2020      43
#>  2 HI           15       2020-10-25 2020-10-26 2020-10-31    2020      44
#>  3 HI           15       2020-11-01 2020-11-02 2020-11-07    2020      45
#>  4 HI           15       2020-11-08 2020-11-09 2020-11-14    2020      46
#>  5 HI           15       2020-11-15 2020-11-16 2020-11-21    2020      47
#>  6 HI           15       2020-11-22 2020-11-23 2020-11-28    2020      48
#>  7 HI           15       2020-11-29 2020-11-30 2020-12-05    2020      49
#>  8 HI           15       2020-12-06 2020-12-07 2020-12-12    2020      50
#>  9 HI           15       2020-12-13 2020-12-14 2020-12-19    2020      51
#> 10 HI           15       2020-12-20 2020-12-21 2020-12-26    2020      52
#> # ℹ 74 more rows
#> # ℹ 8 more variables: flu.admits <dbl>, flu.admits.cov <dbl>, ili_mean <dbl>,
#> #   ili_rank <int>, hosp_mean <dbl>, hosp_rank <int>, date <date>, ili <dbl>
…
Next we prepare the data in the quantile format used by FluSight.

hi_glm_prepped <- format_for_submission(res$forecasts, method="CREG", format = "legacy")
hi_glm_prepped
#> $CREG
#> # A tibble: 96 × 7
#>    forecast_date target            target_end_date location type  quantile value
#>    <date>        <chr>             <date>          <chr>    <chr> <chr>    <chr>
#>  1 2024-12-27    1 wk ahead inc f… 2022-06-04      15       quan… 0.010    0    
#>  2 2024-12-27    1 wk ahead inc f… 2022-06-04      15       quan… 0.025    0    
#>  3 2024-12-27    1 wk ahead inc f… 2022-06-04      15       quan… 0.050    0    
#>  4 2024-12-27    1 wk ahead inc f… 2022-06-04      15       quan… 0.100    0    
#>  5 2024-12-27    1 wk ahead inc f… 2022-06-04      15       quan… 0.150    1    
#>  6 2024-12-27    1 wk ahead inc f… 2022-06-04      15       quan… 0.200    1    
#>  7 2024-12-27    1 wk ahead inc f… 2022-06-04      15       quan… 0.250    1    
#>  8 2024-12-27    1 wk ahead inc f… 2022-06-04      15       quan… 0.300    1    
#>  9 2024-12-27    1 wk ahead inc f… 2022-06-04      15       quan… 0.350    2    
#> 10 2024-12-27    1 wk ahead inc f… 2022-06-04      15       quan… 0.400    2    
#> # ℹ 86 more rows
…
